Email = admin@geoworld.com
Password = Admin

SQL Add Admin = 

INSERT INTO `users` (`id`, `firstname`, `lastname`, `email`, `password`, `role`, `confirm`) VALUES (NULL, ' ', ' ', 'admin@geoworld.com', '887375daec62a9f02d32a63c9e14c7641a9a8a42e4fa8f6590eb928d9744b57bb5057a1d227e4d40ef911ac030590bbce2bfdb78103ff0b79094cee8425601f5', 1, 1);
